EESchema Schematic File Version 4
EELAYER 30 0
EELAYER END
$Descr USLetter 11000 8500
encoding utf-8
Sheet 3 3
Title "Artix 7 Ethernet Acquistion Board"
Date "2020-02-05"
Rev "1"
Comp "Harmon Instruments"
Comment1 ""
Comment2 ""
Comment3 ""
Comment4 ""
$EndDescr
Wire Wire Line
	5700 1800 5700 1850
Wire Wire Line
	5300 1850 5300 1900
Connection ~ 5700 1850
Wire Wire Line
	5400 1800 5400 1850
Connection ~ 5400 1850
Wire Wire Line
	5500 1900 5500 1850
Wire Wire Line
	5600 1900 5600 1850
Connection ~ 5600 1850
Wire Wire Line
	4250 1900 4250 1850
Wire Wire Line
	4250 1850 4350 1850
Wire Wire Line
	4950 1900 4950 1850
Connection ~ 4950 1850
Wire Wire Line
	4850 1900 4850 1850
Connection ~ 4850 1850
Wire Wire Line
	4750 1900 4750 1850
Connection ~ 4750 1850
Wire Wire Line
	4650 1900 4650 1850
Connection ~ 4650 1850
Wire Wire Line
	4550 1900 4550 1850
Connection ~ 4550 1850
Wire Wire Line
	4450 1900 4450 1850
Connection ~ 4450 1850
Wire Wire Line
	4350 1900 4350 1850
Connection ~ 4350 1850
Wire Wire Line
	4900 4950 4900 5000
Wire Wire Line
	4700 5000 4800 5000
Wire Wire Line
	4700 5000 4700 4950
Connection ~ 4900 5000
Wire Wire Line
	4800 4950 4800 5000
Connection ~ 4800 5000
$Comp
L resistor:resistor R17
U 1 1 5528409B
P 3700 5000
F 0 "R17" V 3600 5000 50  0000 C CNN
F 1 "12.1 k" V 3700 5000 40  0000 C CNN
F 2 "kicad_pcb:R_0402_1005Metric" V 3600 5200 30  0001 C CNN
F 3 "" H 3700 5000 30  0000 C CNN
	1    3700 5000
	1    0    0    -1  
$EndComp
Wire Wire Line
	3700 4750 3700 4700
Wire Wire Line
	3700 4700 3750 4700
Text Label 3150 3700 0    50   ~ 0
ENET_MDC
Text Label 3150 3800 0    50   ~ 0
ENET_MDIO
Wire Wire Line
	5500 1850 5600 1850
Wire Wire Line
	5400 1850 5300 1850
Text Notes 6600 2350 2    50   ~ 0
Pullup mode=1111
Text Label 6550 4000 2    50   ~ 0
ENET_A+
Wire Wire Line
	6650 4000 5950 4000
Text Label 6550 4100 2    50   ~ 0
ENET_A-
Wire Wire Line
	6650 4100 5950 4100
Text Label 6400 4200 2    50   ~ 0
ENET_B+
Text Label 6400 4300 2    50   ~ 0
ENET_B-
Text Label 6550 4400 2    50   ~ 0
ENET_C+
Wire Wire Line
	6650 4400 5950 4400
Text Label 6550 4500 2    50   ~ 0
ENET_C-
Wire Wire Line
	6650 4500 5950 4500
Text Label 6400 4600 2    50   ~ 0
ENET_D+
Text Label 6400 4700 2    50   ~ 0
ENET_D-
Text Label 3150 3350 0    50   ~ 0
ENET_LED2
Text Label 3150 3450 0    50   ~ 0
ENET_LED1
NoConn ~ 3750 4500
Wire Wire Line
	6600 5250 6600 5200
Wire Wire Line
	6600 5200 6650 5200
$Comp
L capacitors:capacitor_0402 C40
U 1 1 55281250
P 6450 5500
F 0 "C40" V 6400 5550 50  0000 L CNN
F 1 "100 nF" V 6500 5550 50  0000 L CNN
F 2 "kicad_pcb:C_0402_1005Metric" H 6450 5500 50  0001 C CNN
F 3 "" H 6450 5500 50  0000 C CNN
	1    6450 5500
	1    0    0    -1  
$EndComp
Wire Wire Line
	6450 5100 6450 5300
$Comp
L capacitors:capacitor_0402 C39
U 1 1 55281A4C
P 6200 5500
F 0 "C39" V 6150 5550 50  0000 L CNN
F 1 "100 nF" V 6250 5550 50  0000 L CNN
F 2 "kicad_pcb:C_0402_1005Metric" H 6200 5500 50  0001 C CNN
F 3 "" H 6200 5500 50  0000 C CNN
	1    6200 5500
	1    0    0    -1  
$EndComp
$Comp
L capacitors:capacitor_0402 C38
U 1 1 55281A9D
P 5950 5500
F 0 "C38" V 5900 5550 50  0000 L CNN
F 1 "100 nF" V 6000 5550 50  0000 L CNN
F 2 "kicad_pcb:C_0402_1005Metric" H 5950 5500 50  0001 C CNN
F 3 "" H 5950 5500 50  0000 C CNN
	1    5950 5500
	1    0    0    -1  
$EndComp
$Comp
L capacitors:capacitor_0402 C37
U 1 1 55281AA9
P 5700 5500
F 0 "C37" V 5650 5550 50  0000 L CNN
F 1 "100 nF" V 5750 5550 50  0000 L CNN
F 2 "kicad_pcb:C_0402_1005Metric" H 5700 5500 50  0001 C CNN
F 3 "" H 5700 5500 50  0000 C CNN
	1    5700 5500
	1    0    0    -1  
$EndComp
Wire Wire Line
	6200 5300 6200 5000
Wire Wire Line
	6650 4900 5950 4900
Wire Wire Line
	5950 4900 5950 5300
Wire Wire Line
	6650 4800 5850 4800
Text Label 6450 4800 0    50   ~ 0
CT1
Text Label 6450 4900 0    50   ~ 0
CT2
Text Label 6450 5000 0    50   ~ 0
CT3
Text Label 6450 5100 0    50   ~ 0
CT4
Text Label 3150 4100 0    50   ~ 0
LED_MODE
Text Label 3150 4200 0    50   ~ 0
ENET_RESET
Wire Wire Line
	3150 4200 3750 4200
Text Label 7650 4350 0    50   ~ 0
ENET_LED1_4
Text Label 7650 4000 0    50   ~ 0
ENET_LED2_4
Wire Wire Line
	7700 4550 7700 4600
Wire Wire Line
	7700 4600 7650 4600
Wire Wire Line
	7700 4200 7700 4250
Wire Wire Line
	7700 4250 7650 4250
Text Notes 6000 2100 0    50   ~ 0
0.53 W\n220 mA 1.2 V\n67 mA 3.3 V\n24 mA 1.8 V
Text Label 3150 3900 0    50   ~ 0
ENET_INT
Wire Wire Line
	3750 3900 3150 3900
Wire Wire Line
	8150 4350 7650 4350
Wire Wire Line
	8150 4000 7650 4000
Wire Wire Line
	3150 4600 3750 4600
$Comp
L resistor:resistor R15
U 1 1 5646275F
P 2900 4100
F 0 "R15" V 2800 4100 50  0000 C CNN
F 1 "12.1 k" V 2900 4100 40  0000 C CNN
F 2 "kicad_pcb:R_0402_1005Metric" V 2800 4300 30  0001 C CNN
F 3 "" H 2900 4100 30  0001 C CNN
	1    2900 4100
	0    1    1    0   
$EndComp
Wire Wire Line
	5700 1850 5700 1900
Wire Wire Line
	5400 1850 5400 1900
Wire Wire Line
	5600 1850 5700 1850
Wire Wire Line
	4950 1850 5050 1850
Wire Wire Line
	4850 1850 4950 1850
Wire Wire Line
	4750 1850 4850 1850
Wire Wire Line
	4650 1850 4750 1850
Wire Wire Line
	4550 1850 4650 1850
Wire Wire Line
	4450 1850 4550 1850
Wire Wire Line
	4350 1850 4450 1850
Wire Wire Line
	5050 1850 5050 1900
Wire Wire Line
	4900 5000 4900 5050
Wire Wire Line
	4800 5000 4900 5000
$Comp
L resistor:resistor R14
U 1 1 5CECB61B
P 2500 3400
F 0 "R14" V 2400 3400 50  0000 C CNN
F 1 "12.1 k" V 2500 3400 40  0000 C CNN
F 2 "kicad_pcb:R_0402_1005Metric" V 2400 3600 30  0001 C CNN
F 3 "" H 2500 3400 30  0001 C CNN
	1    2500 3400
	1    0    0    -1  
$EndComp
$Comp
L connector:P323Q J5
U 1 1 5CF8381A
P 6800 3900
F 0 "J5" H 6800 4050 50  0000 L CNN
F 1 "P323Q" H 6800 3950 50  0000 L CNN
F 2 "kicad_pcb:magjack" H 7350 3950 50  0001 C CNN
F 3 "$PARTS/P323Q/magjack.pdf" H 6800 3900 50  0001 C CNN
	1    6800 3900
	1    0    0    -1  
$EndComp
$Comp
L resistor:resistor_0603 R?
U 1 1 5CFCD376
P 8400 4350
AR Path="/5527D2A2/5CFCD376" Ref="R?"  Part="1" 
AR Path="/5527C384/5CFCD376" Ref="R?"  Part="1" 
AR Path="/61CF01D5/5CFCD376" Ref="R19"  Part="1" 
F 0 "R19" V 8500 4350 50  0000 C CNN
F 1 "240" V 8400 4350 50  0000 C CNN
F 2 "kicad_pcb:R_0603_1608Metric" V 8300 4150 50  0001 C CNN
F 3 "" H 8400 4350 50  0000 C CNN
	1    8400 4350
	0    -1   -1   0   
$EndComp
$Comp
L resistor:resistor_0603 R?
U 1 1 5D013C81
P 8400 4000
AR Path="/5527D2A2/5D013C81" Ref="R?"  Part="1" 
AR Path="/5527C384/5D013C81" Ref="R?"  Part="1" 
AR Path="/61CF01D5/5D013C81" Ref="R18"  Part="1" 
F 0 "R18" V 8500 4000 50  0000 C CNN
F 1 "240" V 8400 4000 50  0000 C CNN
F 2 "kicad_pcb:R_0603_1608Metric" V 8300 3800 50  0001 C CNN
F 3 "" H 8400 4000 50  0000 C CNN
	1    8400 4000
	0    -1   -1   0   
$EndComp
Wire Wire Line
	6450 5100 6650 5100
Wire Wire Line
	6200 5000 6650 5000
Wire Wire Line
	5850 4800 5850 4900
Wire Wire Line
	5850 4900 5700 4900
Wire Wire Line
	5700 4900 5700 5300
Wire Wire Line
	3750 4100 3150 4100
Text Label 3700 4700 2    50   ~ 0
ENET_ISET
Wire Wire Line
	2650 4100 2600 4100
Wire Wire Line
	2600 4100 2600 4050
NoConn ~ 3750 3900
NoConn ~ 3750 4300
Text Notes 3750 3250 2    50   ~ 0
PHYAD = 7
Text Label 9250 4000 2    50   ~ 0
ENET_LED2
Wire Wire Line
	9250 4000 8650 4000
Text Label 9250 4350 2    50   ~ 0
ENET_LED1
Wire Wire Line
	9250 4350 8650 4350
$Comp
L resistor:resistor R16
U 1 1 5C130883
P 3000 3050
F 0 "R16" V 2900 3050 50  0000 C CNN
F 1 "12.1 k" V 3000 3050 40  0000 C CNN
F 2 "kicad_pcb:R_0402_1005Metric" V 2900 3250 30  0001 C CNN
F 3 "" H 3000 3050 30  0001 C CNN
	1    3000 3050
	1    0    0    -1  
$EndComp
$Comp
L resistor:resistor R13
U 1 1 5C13094F
P 2800 3050
F 0 "R13" V 2700 3050 50  0000 C CNN
F 1 "12.1 k" V 2800 3050 40  0000 C CNN
F 2 "kicad_pcb:R_0402_1005Metric" V 2700 3250 30  0001 C CNN
F 3 "" H 2800 3050 30  0001 C CNN
	1    2800 3050
	1    0    0    -1  
$EndComp
Wire Wire Line
	3000 2800 2800 2800
Wire Wire Line
	2800 2750 2800 2800
Connection ~ 2800 2800
Wire Wire Line
	3000 3300 3000 3350
Wire Wire Line
	3000 3350 3750 3350
Wire Wire Line
	2800 3450 2800 3300
Wire Wire Line
	2800 3450 3750 3450
$Comp
L ic:Y2Y9R U8
U 1 1 5BDC86A2
P 3900 2050
F 0 "U8" H 3900 2200 50  0000 L CNN
F 1 "Y2Y9R" H 3900 2100 50  0000 L CNN
F 2 "kicad_pcb:QFN-48-1EP_7x7mm_P0.5mm_EP3.5x3.5mm" H 5000 -1418 50  0001 C CNN
F 3 "$PARTS/Y2Y9R/KSZ9031RNX.pdf" H 5000 -1509 50  0001 C CNN
	1    3900 2050
	1    0    0    -1  
$EndComp
$Comp
L power:GND #PWR080
U 1 1 5E43DF4D
P 6450 5700
F 0 "#PWR080" H 6450 5450 50  0001 C CNN
F 1 "GND" H 6455 5527 50  0001 C CNN
F 2 "" H 6450 5700 50  0001 C CNN
F 3 "" H 6450 5700 50  0001 C CNN
	1    6450 5700
	1    0    0    -1  
$EndComp
$Comp
L power:GND #PWR081
U 1 1 5E43E79B
P 6600 5250
F 0 "#PWR081" H 6600 5000 50  0001 C CNN
F 1 "GND" H 6605 5077 50  0001 C CNN
F 2 "" H 6600 5250 50  0001 C CNN
F 3 "" H 6600 5250 50  0001 C CNN
	1    6600 5250
	1    0    0    -1  
$EndComp
$Comp
L power:GND #PWR079
U 1 1 5E43ECA2
P 6200 5700
F 0 "#PWR079" H 6200 5450 50  0001 C CNN
F 1 "GND" H 6205 5527 50  0001 C CNN
F 2 "" H 6200 5700 50  0001 C CNN
F 3 "" H 6200 5700 50  0001 C CNN
	1    6200 5700
	1    0    0    -1  
$EndComp
$Comp
L power:GND #PWR078
U 1 1 5E43F27C
P 5950 5700
F 0 "#PWR078" H 5950 5450 50  0001 C CNN
F 1 "GND" H 5955 5527 50  0001 C CNN
F 2 "" H 5950 5700 50  0001 C CNN
F 3 "" H 5950 5700 50  0001 C CNN
	1    5950 5700
	1    0    0    -1  
$EndComp
$Comp
L power:GND #PWR077
U 1 1 5E43F286
P 5700 5700
F 0 "#PWR077" H 5700 5450 50  0001 C CNN
F 1 "GND" H 5705 5527 50  0001 C CNN
F 2 "" H 5700 5700 50  0001 C CNN
F 3 "" H 5700 5700 50  0001 C CNN
	1    5700 5700
	1    0    0    -1  
$EndComp
$Comp
L power:GND #PWR074
U 1 1 5E445698
P 4900 5050
F 0 "#PWR074" H 4900 4800 50  0001 C CNN
F 1 "GND" H 4905 4877 50  0001 C CNN
F 2 "" H 4900 5050 50  0001 C CNN
F 3 "" H 4900 5050 50  0001 C CNN
	1    4900 5050
	1    0    0    -1  
$EndComp
$Comp
L power:GND #PWR073
U 1 1 5E445E62
P 3700 5250
F 0 "#PWR073" H 3700 5000 50  0001 C CNN
F 1 "GND" H 3705 5077 50  0001 C CNN
F 2 "" H 3700 5250 50  0001 C CNN
F 3 "" H 3700 5250 50  0001 C CNN
	1    3700 5250
	1    0    0    -1  
$EndComp
$Comp
L power:+1V8 #PWR068
U 1 1 5E44A0B0
P 2500 3150
F 0 "#PWR068" H 2500 3000 50  0001 C CNN
F 1 "+1V8" H 2515 3323 50  0000 C CNN
F 2 "" H 2500 3150 50  0001 C CNN
F 3 "" H 2500 3150 50  0001 C CNN
	1    2500 3150
	1    0    0    -1  
$EndComp
$Comp
L power:+1V8 #PWR069
U 1 1 5E44C54F
P 2600 4050
F 0 "#PWR069" H 2600 3900 50  0001 C CNN
F 1 "+1V8" H 2615 4223 50  0000 C CNN
F 2 "" H 2600 4050 50  0001 C CNN
F 3 "" H 2600 4050 50  0001 C CNN
	1    2600 4050
	1    0    0    -1  
$EndComp
$Comp
L power:+1V8 #PWR071
U 1 1 5E44C989
P 2800 2750
F 0 "#PWR071" H 2800 2600 50  0001 C CNN
F 1 "+1V8" H 2815 2923 50  0000 C CNN
F 2 "" H 2800 2750 50  0001 C CNN
F 3 "" H 2800 2750 50  0001 C CNN
	1    2800 2750
	1    0    0    -1  
$EndComp
$Comp
L power:+1V8 #PWR076
U 1 1 5E44D9FD
P 5700 1800
F 0 "#PWR076" H 5700 1650 50  0001 C CNN
F 1 "+1V8" H 5715 1973 50  0000 C CNN
F 2 "" H 5700 1800 50  0001 C CNN
F 3 "" H 5700 1800 50  0001 C CNN
	1    5700 1800
	1    0    0    -1  
$EndComp
$Comp
L power:+3.3V #PWR075
U 1 1 5E45376B
P 5400 1800
F 0 "#PWR075" H 5400 1650 50  0001 C CNN
F 1 "+3.3V" H 5415 1973 50  0000 C CNN
F 2 "" H 5400 1800 50  0001 C CNN
F 3 "" H 5400 1800 50  0001 C CNN
	1    5400 1800
	1    0    0    -1  
$EndComp
$Comp
L power:+3.3V #PWR083
U 1 1 5E4540C0
P 7700 4550
F 0 "#PWR083" H 7700 4400 50  0001 C CNN
F 1 "+3.3V" H 7715 4723 50  0000 C CNN
F 2 "" H 7700 4550 50  0001 C CNN
F 3 "" H 7700 4550 50  0001 C CNN
	1    7700 4550
	1    0    0    -1  
$EndComp
$Comp
L power:+3.3V #PWR082
U 1 1 5E454A7A
P 7700 4200
F 0 "#PWR082" H 7700 4050 50  0001 C CNN
F 1 "+3.3V" H 7715 4373 50  0000 C CNN
F 2 "" H 7700 4200 50  0001 C CNN
F 3 "" H 7700 4200 50  0001 C CNN
	1    7700 4200
	1    0    0    -1  
$EndComp
Text HLabel 3750 2450 0    50   Input ~ 0
TXD0
Text HLabel 3750 2550 0    50   Input ~ 0
TXD1
Text HLabel 3750 2650 0    50   Input ~ 0
TXD2
Text HLabel 3750 2750 0    50   Input ~ 0
TXD3
Text HLabel 3750 2850 0    50   Input ~ 0
TXEN
Text HLabel 3750 2950 0    50   Input ~ 0
TXCLK
Text Notes 7600 2350 2    50   ~ 0
pullups in FPGA\non all RGMII input lines
Text HLabel 5950 2450 2    50   Output ~ 0
RXD0
Text HLabel 5950 2550 2    50   Output ~ 0
RXD1
Text HLabel 5950 2650 2    50   Output ~ 0
RXD2
Text HLabel 6250 2750 2    50   Output ~ 0
RXD3
Text HLabel 6250 2850 2    50   Output ~ 0
RXDV
Text HLabel 6250 2950 2    50   Output ~ 0
RXCLK
Text HLabel 2450 3700 0    50   Input ~ 0
MDC
Text HLabel 2450 3800 0    50   BiDi ~ 0
MDIO
Text HLabel 3150 4200 0    50   Input ~ 0
~RESET
Text HLabel 3150 4600 0    50   Input ~ 0
ECLK
$Comp
L capacitors:capacitor_0402 C?
U 1 1 61FEBBA6
P 3600 1850
AR Path="/5C2CDB08/61FEBBA6" Ref="C?"  Part="1" 
AR Path="/5E374CB3/61FEBBA6" Ref="C?"  Part="1" 
AR Path="/61CF01D5/61FEBBA6" Ref="C36"  Part="1" 
F 0 "C36" V 3450 1850 50  0000 C CNN
F 1 "1 uF" V 3750 1850 50  0000 C CNN
F 2 "kicad_pcb:C_0402_1005Metric" H 3750 1750 50  0001 L CNN
F 3 "" H 3600 1850 50  0000 C CNN
	1    3600 1850
	1    0    0    -1  
$EndComp
$Comp
L combined:ground #PWR?
U 1 1 61FEBBAC
P 3600 2100
AR Path="/5C2CDB08/61FEBBAC" Ref="#PWR?"  Part="1" 
AR Path="/5E374CB3/61FEBBAC" Ref="#PWR?"  Part="1" 
AR Path="/61CF01D5/61FEBBAC" Ref="#PWR072"  Part="1" 
F 0 "#PWR072" H 3600 2100 50  0001 C CNN
F 1 "ground" H 3600 2030 50  0001 C CNN
F 2 "" H 3600 2100 50  0001 C CNN
F 3 "" H 3600 2100 50  0000 C CNN
	1    3600 2100
	1    0    0    -1  
$EndComp
$Comp
L capacitors:capacitor_0402 C?
U 1 1 61FEBBB2
P 3200 1850
AR Path="/5C2CDB08/61FEBBB2" Ref="C?"  Part="1" 
AR Path="/5E374CB3/61FEBBB2" Ref="C?"  Part="1" 
AR Path="/61CF01D5/61FEBBB2" Ref="C35"  Part="1" 
F 0 "C35" V 3050 1850 50  0000 C CNN
F 1 "1 uF" V 3350 1850 50  0000 C CNN
F 2 "kicad_pcb:C_0402_1005Metric" H 3350 1750 50  0001 L CNN
F 3 "" H 3200 1850 50  0000 C CNN
	1    3200 1850
	1    0    0    -1  
$EndComp
Wire Wire Line
	3200 2050 3600 2050
Connection ~ 3600 2050
Connection ~ 3200 1650
Wire Wire Line
	3600 1650 3200 1650
Connection ~ 3200 2050
Wire Wire Line
	3600 2100 3600 2050
Wire Wire Line
	2800 2050 3200 2050
$Comp
L capacitors:capacitor_0402 C?
U 1 1 61FEEF5B
P 2800 1850
AR Path="/5C2CDB08/61FEEF5B" Ref="C?"  Part="1" 
AR Path="/5E374CB3/61FEEF5B" Ref="C?"  Part="1" 
AR Path="/61CF01D5/61FEEF5B" Ref="C34"  Part="1" 
F 0 "C34" V 2650 1850 50  0000 C CNN
F 1 "1 uF" V 2950 1850 50  0000 C CNN
F 2 "kicad_pcb:C_0402_1005Metric" H 2950 1750 50  0001 L CNN
F 3 "" H 2800 1850 50  0000 C CNN
	1    2800 1850
	1    0    0    -1  
$EndComp
Connection ~ 2800 1650
Wire Wire Line
	2800 1650 3200 1650
Wire Wire Line
	3600 1650 4250 1650
Wire Wire Line
	4250 1650 4250 1850
Connection ~ 3600 1650
Connection ~ 4250 1850
Wire Wire Line
	6650 4200 6600 4200
Wire Wire Line
	6600 4200 6500 4300
Wire Wire Line
	6500 4300 5950 4300
Wire Wire Line
	5950 4200 6500 4200
Wire Wire Line
	6500 4200 6600 4300
Wire Wire Line
	6600 4300 6650 4300
Wire Wire Line
	5950 4600 6450 4600
Wire Wire Line
	6450 4600 6550 4700
Wire Wire Line
	6550 4700 6650 4700
Wire Wire Line
	6650 4600 6550 4600
Wire Wire Line
	6550 4600 6450 4700
Wire Wire Line
	6450 4700 5950 4700
$Comp
L power:+1V2 #PWR070
U 1 1 633C2E74
P 2800 1650
F 0 "#PWR070" H 2800 1500 50  0001 C CNN
F 1 "+1V2" H 2815 1823 50  0000 C CNN
F 2 "" H 2800 1650 50  0001 C CNN
F 3 "" H 2800 1650 50  0001 C CNN
	1    2800 1650
	1    0    0    -1  
$EndComp
Wire Wire Line
	2450 3800 2500 3800
$Comp
L misc:testpoint_0.5mm TP4
U 1 1 5F63E01B
P 2500 3550
F 0 "TP4" V 2492 3272 50  0000 R CNN
F 1 "testpoint_0.5mm" H 2700 3350 50  0001 L CNN
F 2 "kicad_pcb:TP_0.5mm" H 2700 3450 50  0001 L CNN
F 3 "" V 2750 3550 50  0001 C CNN
	1    2500 3550
	0    -1   -1   0   
$EndComp
$Comp
L misc:testpoint_0.5mm TP5
U 1 1 5F63EBE9
P 2750 3550
F 0 "TP5" V 2742 3272 50  0000 R CNN
F 1 "testpoint_0.5mm" H 2950 3350 50  0001 L CNN
F 2 "kicad_pcb:TP_0.5mm" H 2950 3450 50  0001 L CNN
F 3 "" V 3000 3550 50  0001 C CNN
	1    2750 3550
	0    -1   -1   0   
$EndComp
Wire Wire Line
	2950 3650 2950 3700
Connection ~ 2950 3700
Wire Wire Line
	2950 3700 3750 3700
Wire Wire Line
	2700 3650 2700 3800
Connection ~ 2700 3800
Wire Wire Line
	2700 3800 3750 3800
Wire Wire Line
	2450 3700 2950 3700
Wire Wire Line
	2500 3650 2500 3800
Connection ~ 2500 3800
Wire Wire Line
	2500 3800 2700 3800
Wire Wire Line
	5950 2750 6200 2750
Wire Wire Line
	5950 2850 6100 2850
Wire Wire Line
	5950 2950 6000 2950
$Comp
L misc:testpoint_0.5mm TP6
U 1 1 5F662AD6
P 6200 3100
F 0 "TP6" H 6300 2900 50  0000 L CNN
F 1 "testpoint_0.5mm" H 6400 2900 50  0001 L CNN
F 2 "kicad_pcb:TP_0.5mm" H 6400 3000 50  0001 L CNN
F 3 "" V 6450 3100 50  0001 C CNN
	1    6200 3100
	0    1    1    0   
$EndComp
$Comp
L misc:testpoint_0.5mm TP7
U 1 1 5F665BB9
P 6300 3100
F 0 "TP7" H 6400 2900 50  0000 L CNN
F 1 "testpoint_0.5mm" H 6500 2900 50  0001 L CNN
F 2 "kicad_pcb:TP_0.5mm" H 6500 3000 50  0001 L CNN
F 3 "" V 6550 3100 50  0001 C CNN
	1    6300 3100
	0    1    1    0   
$EndComp
$Comp
L misc:testpoint_0.5mm TP8
U 1 1 5F666020
P 6400 3100
F 0 "TP8" H 6500 2900 50  0000 L CNN
F 1 "testpoint_0.5mm" H 6600 2900 50  0001 L CNN
F 2 "kicad_pcb:TP_0.5mm" H 6600 3000 50  0001 L CNN
F 3 "" V 6650 3100 50  0001 C CNN
	1    6400 3100
	0    1    1    0   
$EndComp
Wire Wire Line
	6000 3000 6000 2950
Connection ~ 6000 2950
Wire Wire Line
	6000 2950 6250 2950
Wire Wire Line
	6100 3000 6100 2850
Connection ~ 6100 2850
Wire Wire Line
	6100 2850 6250 2850
Wire Wire Line
	6200 3000 6200 2750
Connection ~ 6200 2750
Wire Wire Line
	6200 2750 6250 2750
$EndSCHEMATC
